Markdown-citibike
…
#View(citibike_tripdata)

base_fin<- head(citibike_tripdata,1000)
base_fin

## # A tibble: 1,000 × 13
##    ride_id          rideable_type started_at          ended_at           
##    <chr>            <chr>         <dttm>              <dttm>             
##  1 228F2E2FEBFBF843 classic_bike  2021-09-11 16:03:10 2021-09-11 16:20:57
##  2 DCDBDC0A5178BAB5 classic_bike  2021-09-14 17:27:50 2021-09-14 17:34:18
##  3 DD7AD7B81588187B docked_bike   2021-09-04 20:29:34 2021-09-04 20:41:17
##  4 4D3CFEEB6E3E514B classic_bike  2021-09-16 17:26:37 2021-09-16 17:32:48
##  5 D05FC6DDE1112F08 classic_bike  2021-09-16 18:05:35 2021-09-16 18:16:02
##  6 8769F362BE51A110 classic_bike  2021-09-13 08:15:09 2021-09-13 08:25:07
##  7 55E3308E4A04F30A classic_bike  2021-09-19 13:38:13 2021-09-19 13:43:03
##  8 A6804335147F2379 classic_bike  2021-09-25 18:40:52 2021-09-25 18:45:23
##  9 8E22087D9E5ABC3E classic_bike  2021-09-25 16:09:26 2021-09-25 16:15:01
## 10 228BF949DD76A3A5 classic_bike  2021-09-25 20:33:38 2021-09-25 20:40:55
## # … with 990 more rows, and 9 more variables: start_station_name <chr>,
## #   start_station_id <chr>, end_station_name <chr>, end_station_id <chr>,
## #   start_lat <dbl>, start_lng <dbl>, end_lat <dbl>, end_lng <dbl>,
## #   member_casual <chr>
